[
    {
        "code":"lavilletta",
        "name":"La Villetta",
        "city": "Castricum",
        "shortDescription": "Italian food as it supposed to be!",
        "style":"Italian"
    },
    {
        "code":"cestca",
        "name":"C'est Ca"
    }
]